%YAML 1.1
%TAG !u! tag:unity3d.com,2011:
--- !u!1045 &1
EditorBuildSettings:
  m_ObjectHideFlags: 0
  serializedVersion: 2
  m_Scenes:
  - enabled: 1
    path: Assets/Scenes/Area01.unity
    guid: 0e036677794c20140b1dcbc64dfd0179
  - enabled: 1
    path: Assets/Scenes/GameOver.unity
    guid: 07a9e106e0dfdc84fa29835dbbfc6b3b
